…
I `tidyverse` og `dplyr` pakken bruker man som regel `mutate()`
funksjonen sammen med andre funksjoner for å opprette nye variabler. Ved
hjelp av `mutate()` kan du gjøre mange omkodinger i slengen - dette gir
mer ryddig kode.

``` r
aid %>% # Spesifiserer at vi skal jobbe med datasettet aid - R vil da lete etter variabler vi referer til her, slik at vi slipper aid$var
  mutate(policy_index = economic_open + inflation + budget_balance) # lager variabelen policy ved å summere budsjettbalanse, inflasjon og en indeks for øk. åpenhet
```

    ## # A tibble: 331 x 20
    ##    country period periodstart periodend code  gdp_growth gdp_pr_capita
    ##    <chr>    <dbl>       <dbl>     <dbl> <chr>      <dbl>         <dbl>
    ##  1 ARG          2        1970      1973 ARG2        1.70          5637
    ##  2 ARG          3        1974      1977 ARG3        1.08          6168
    ##  3 ARG          4        1978      1981 ARG4       -1.12          5849
    ##  4 ARG          5        1982      1985 ARG5       -2.55          5487
    ##  5 ARG          6        1986      1989 ARG6       -1.10          5624
    ##  6 ARG          7        1990      1993 ARG7        4.26          4706
    ##  7 BOL          2        1970      1973 BOL2        1.30          1661
    ##  8 BOL          3        1974      1977 BOL3        2.96          1838
    ##  9 BOL          4        1978      1981 BOL4       -1.49          2015
    ## 10 BOL          5        1982      1985 BOL5       -4.32          1864
    ## # ... with 321 more rows, and 13 more variables: economic_open <dbl>,
    ## #   budget_balance <dbl>, inflation <dbl>, ethnic_frac <dbl>,
    ## #   assasinations <dbl>, aid <dbl>, fast_growing_east_asia <dbl>,
    ## #   sub_saharan_africa <dbl>, central_america <dbl>, policy <dbl>,
    ## #   m2_gdp_lagged <dbl>, institutional_quality <dbl>, policy_index <dbl>
…
